<?xml version="1.0" encoding="UTF-8"?>
<svg width="1178px" height="1346px" viewBox="0 0 1178 1346" version="1.1" xmlns="http://www.w3.org/2000/svg" xmlns:xlink="http://www.w3.org/1999/xlink">
    <!-- Generator: Sketch 54.1 (76490) - https://sketchapp.com -->
    <title>Consensys_Logo_white</title>
    <desc>Created with Sketch.</desc>
    <g id="Page-1" stroke="none" stroke-width="1" fill="none" fill-rule="evenodd">
        <g id="Artboard" transform="translate(-932.000000, -352.000000)" fill="#000000" fill-rule="nonzero">
            <g id="Consensys_Logo_white" transform="translate(932.000000, 352.000000)">
                <g id="Consensys" transform="translate(47.000000, 0.000000)">
                    <g id="main-Logo">
                        <path d="M494.65,1078 C493.636421,1078.00552 492.818189,1078.82972 492.82003,1079.84332 C492.821872,1080.85691 493.643092,1081.67813 494.656685,1081.67997 C495.670277,1081.68181 496.494476,1080.86358 496.5,1079.85 C496.5,1078.82827 495.671727,1078 494.65,1078 L494.65,1078 Z" id="_Path_"></path>
                        <path d="M443.42,1060.24 C442.443296,1060.23196 441.504115,1060.61571 440.812519,1061.30543 C440.120922,1061.99514 439.734615,1062.93328 439.74,1063.91 C439.731901,1065.40517 440.626872,1066.75744 442.0063,1067.3343 C443.385729,1067.91116 444.976921,1067.59858 446.035618,1066.54276 C447.094314,1065.48694 447.411224,1063.8966 446.838118,1062.51561 C446.265012,1061.13462 444.915185,1060.23597 443.42,1060.24 Z" id="_Path_2"></path>
                        <path d="M394.15,1037.16 C391.184547,1037.28608 388.845319,1039.72687 388.845319,1042.695 C388.845319,1045.66313 391.184547,1048.10392 394.15,1048.23 C396.183586,1048.31646 398.100814,1047.28081 399.143388,1045.53267 C400.185963,1043.78453 400.185963,1041.60547 399.143388,1039.85733 C398.100814,1038.10919 396.183586,1037.07354 394.15,1037.16 L394.15,1037.16 Z" id="_Path_3"></path>
                        <path d="M347.39,1009 C343.312562,1009.01655 340.019003,1012.33246 340.030027,1016.40992 C340.041051,1020.48738 343.352491,1023.78543 347.429959,1023.77993 C351.507427,1023.77444 354.809966,1020.46747 354.81,1016.39 C354.812693,1014.42402 354.030846,1012.53822 352.637873,1011.15088 C351.244901,1009.76354 349.355953,1008.98934 347.39,1009 L347.39,1009 Z" id="_Path_4"></path>
                        <path d="M303.68,976.11 C299.940952,976.105956 296.568013,978.355726 295.135272,981.809383 C293.702532,985.263041 294.492431,989.239753 297.136339,991.883661 C299.780247,994.527569 303.756959,995.317468 307.210617,993.884728 C310.664274,992.451987 312.914044,989.079048 312.91,985.34 C312.91,980.242412 308.777588,976.11 303.68,976.11 Z" id="_Path_5"></path>
                        <path d="M263.45,938.72 C257.338527,938.73657 252.394522,943.69848 252.400045,949.809973 C252.405569,955.921466 257.358534,960.874431 263.470027,960.879955 C269.58152,960.885478 274.54343,955.941473 274.56,949.83 C274.570678,946.880184 273.403593,944.048104 271.317745,941.962255 C269.231896,939.876407 266.399816,938.709322 263.45,938.72 Z" id="_Path_6"></path>
                        <path d="M227.2,897.35 C220.068198,897.38861 214.314378,903.194554 214.340084,910.326414 C214.36579,917.458274 220.161312,923.22259 227.293207,923.20979 C234.425102,923.196989 240.199895,917.411907 240.2,910.28 C240.20005,906.838588 238.828182,903.539139 236.388176,901.112271 C233.948169,898.685404 230.641362,897.331369 227.2,897.35 L227.2,897.35 Z" id="_Path_7"></path>
                        <path d="M195.36,852.28 C189.373959,852.28 183.977342,855.885904 181.686583,861.416285 C179.395824,866.946666 180.662049,873.31241 184.89482,877.54518 C189.12759,881.777951 195.493334,883.044176 201.023715,880.753417 C206.554096,878.462658 210.16,873.066041 210.16,867.08 C210.162655,863.153983 208.604227,859.388002 205.828113,856.611887 C203.051998,853.835773 199.286017,852.277345 195.36,852.28 L195.36,852.28 Z" id="_Path_8"></path>
                        <path d="M185.89,820.2 C185.889998,811.011284 178.442047,803.561843 169.253331,803.560003 C160.064615,803.558164 152.613682,811.004622 152.610001,820.193337 C152.606321,829.382053 160.051286,836.834478 169.24,836.84 C178.424799,836.823507 185.867989,829.384788 185.89,820.2 Z" id="_Path_9"></path>
                        <path d="M168.05,770.29 C168.055508,760.080863 159.785788,751.799226 149.576654,751.790032 C139.36752,751.780838 131.082897,760.047567 131.070017,770.256697 C131.057138,780.465827 139.320875,788.753434 149.53,788.77 C154.436506,788.775307 159.144162,786.831294 162.617336,783.365621 C166.090511,779.899948 168.044699,775.196506 168.05,770.29 L168.05,770.29 Z" id="_Path_10"></path>
                        <path d="M156.92,718.24 C156.92,707.006528 147.813472,697.9 136.58,697.9 C125.346528,697.9 116.24,707.006528 116.24,718.24 C116.24,729.473472 125.346528,738.58 136.58,738.58 C147.811186,738.574482 156.914482,729.471186 156.92,718.24 Z" id="_Path_11"></path>
                        <path d="M152.73,665 C152.742138,656.025397 147.344774,647.927929 139.056416,644.486018 C130.768058,641.044106 121.222342,642.936154 114.873471,649.279298 C108.5246,655.622442 106.623937,665.166446 110.058367,673.457907 C113.492796,681.749369 121.58539,687.154038 130.56,687.15 C136.438822,687.157966 142.079446,684.82751 146.23828,680.672428 C150.397115,676.517345 152.732661,670.878827 152.73,665 L152.73,665 Z" id="_Path_12"></path>
                        <path d="M131.53,635.34 C144.784834,635.34 155.53,624.594834 155.53,611.34 C155.53,598.085166 144.784834,587.34 131.53,587.34 C118.275166,587.34 107.53,598.085166 107.53,611.34 C107.53,624.594834 118.275166,635.34 131.53,635.34 Z" id="_Path_13"></path>
                        <path d="M113.65,558.29 C113.661046,572.576299 125.250357,584.149196 139.536658,584.139993 C153.822958,584.13079 165.397349,572.542971 165.389989,558.256669 C165.382628,543.970368 153.796302,532.394482 139.51,532.4 C132.644669,532.394673 126.059432,535.121611 121.207723,539.978948 C116.356015,544.836285 113.636714,551.42468 113.65,558.29 L113.65,558.29 Z" id="_Path_14"></path>
                        <path d="M890.1,954.49 C889.434879,954.485957 888.833185,954.88404 888.576782,955.497766 C888.32038,956.111493 888.460055,956.819305 888.930375,957.289625 C889.400695,957.759945 890.108507,957.89962 890.722234,957.643218 C891.33596,957.386815 891.734043,956.785121 891.73,956.12 C891.713993,955.22649 890.99351,954.506007 890.1,954.49 L890.1,954.49 Z" id="_Path_15"></path>
                        <path d="M842.59,977.8 C841.721147,977.786628 840.883123,978.121751 840.263068,978.730532 C839.643013,979.339314 839.292571,980.171048 839.29,981.04 C839.222835,982.256866 839.833849,983.41117 840.877913,984.039824 C841.921977,984.668478 843.228023,984.668478 844.272087,984.039824 C845.316151,983.41117 845.927165,982.256866 845.86,981.04 C845.848987,979.24346 844.386566,977.794455 842.59,977.8 Z" id="_Path_16"></path>
                        <path d="M792.74,996 C790.028282,996 787.83,998.198282 787.83,1000.91 C787.83,1003.62172 790.028282,1005.82 792.74,1005.82 C795.451718,1005.82 797.65,1003.62172 797.65,1000.91 C797.65,998.198282 795.451718,996 792.74,996 Z" id="_Path_17"></path>
                        <path d="M741.07,1008.84 C737.56022,1008.97732 734.785685,1011.86253 734.785685,1015.375 C734.785685,1018.88747 737.56022,1021.77268 741.07,1021.91 C743.465705,1022.00373 745.720655,1020.77908 746.946386,1018.71855 C748.172118,1016.65802 748.172118,1014.09198 746.946386,1012.03145 C745.720655,1009.97092 743.465705,1008.74627 741.07,1008.84 L741.07,1008.84 Z" id="_Path_18"></path>
                        <path d="M688.19,1016.13 C684.872593,1016.09756 681.864126,1018.07203 680.573939,1021.12844 C679.283751,1024.18485 679.967385,1027.71785 682.304586,1030.07236 C684.641787,1032.42687 688.169637,1033.13656 691.235488,1031.86897 C694.301339,1030.60137 696.297953,1027.60756 696.29,1024.29 C696.273872,1019.8134 692.666362,1016.17916 688.19,1016.13 Z" id="_Path_19"></path>
                        <path d="M634.65,1017.83 C629.240215,1017.83001 624.853695,1022.21356 624.850023,1027.62335 C624.84635,1033.03313 629.226914,1037.42263 634.636694,1037.42999 C640.046473,1037.43735 644.43896,1033.05977 644.45,1027.65 C644.463344,1025.04498 643.435776,1022.5425 641.5956,1020.69857 C639.755424,1018.85463 637.255047,1017.82197 634.65,1017.83 L634.65,1017.83 Z" id="_Path_20"></path>
                        <path d="M581,1013.91 C574.688716,1013.92657 569.585325,1019.05534 569.600049,1025.36663 C569.614772,1031.67791 574.742038,1036.78281 581.05333,1036.76994 C587.364623,1036.75706 592.471022,1031.6313 592.46,1025.32 C592.460029,1022.2852 591.251046,1019.37542 589.10043,1017.23418 C586.949814,1015.09295 584.034774,1013.8967 581,1013.91 L581,1013.91 Z" id="_Path_21"></path>
                        <path d="M528,1004.23 C522.707325,1004.23008 517.93716,1007.42211 515.918342,1012.31463 C513.899525,1017.20715 515.030628,1022.83424 518.78315,1026.56667 C522.535672,1030.29909 528.168755,1031.39996 533.050367,1029.3549 C537.931978,1027.30984 541.098346,1022.5226 541.07,1017.23 C541.042439,1010.03441 535.195638,1004.21892 528,1004.23 Z" id="_Path_22"></path>
                        <path d="M476.38,987.91 C468.272471,987.921053 461.708979,994.502462 461.720027,1002.60999 C461.731075,1010.71752 468.31248,1017.28102 476.420009,1017.26997 C484.527538,1017.25893 491.091038,1010.67753 491.08,1002.57 C491.057951,994.46704 484.48299,987.90997 476.38,987.91 L476.38,987.91 Z" id="_Path_23"></path>
                        <path d="M427.18,964.93 C420.571505,964.917861 414.60716,968.889914 412.070717,974.992275 C409.534274,981.094636 410.925818,988.124161 415.595872,992.799944 C420.265925,997.475728 427.293739,998.875891 433.399205,996.346933 C439.504672,993.817975 443.484036,987.858505 443.48,981.25 C443.482653,976.924319 441.766827,972.774752 438.709984,969.714159 C435.65314,966.653565 431.505681,964.932651 427.18,964.93 Z" id="_Path_24"></path>
                        <path d="M399.15,953.59 C399.15,943.648875 391.091125,935.59 381.15,935.59 C371.208875,935.59 363.15,943.648875 363.15,953.59 C363.15,963.531125 371.208875,971.59 381.15,971.59 C385.928787,971.606009 390.516465,969.714728 393.895596,966.335596 C397.274728,962.956465 399.166009,958.368787 399.15,953.59 L399.15,953.59 Z" id="_Path_25"></path>
                        <path d="M339.26,900.6 C331.337904,900.591909 324.191557,905.358372 321.155229,912.675501 C318.1189,919.992629 319.790975,928.4184 325.391314,934.021602 C330.991653,939.624804 339.416568,941.301185 346.735247,938.268597 C354.053927,935.236009 358.824042,928.092099 358.82,920.17 C358.787086,909.37935 350.050632,900.638429 339.26,900.6 Z" id="_Path_26"></path>
                        <path d="M302,860.31 C293.401548,860.297862 285.643191,865.468638 282.345226,873.409479 C279.047261,881.35032 280.859742,890.496025 286.936907,896.578919 C293.014073,902.661812 302.158067,904.482908 310.102011,901.192425 C318.045955,897.901942 323.224038,890.14846 323.22,881.55 C323.220005,869.827278 313.722717,860.321038 302,860.31 L302,860.31 Z" id="_Path_27"></path>
                        <path d="M270.15,861.29 C279.400957,861.298089 287.745691,855.732206 291.292419,847.188145 C294.839148,838.644083 292.88926,828.804796 286.352135,822.259089 C279.815011,815.713382 269.978291,813.750586 261.429583,817.286101 C252.880875,820.821616 247.304049,829.15904 247.3,838.41 C247.284041,844.477831 249.685358,850.302174 253.973162,854.595607 C258.260966,858.889041 264.082153,861.297998 270.15,861.29 L270.15,861.29 Z" id="_Path_28"></path>
                        <path d="M268.6,791.51 C268.588956,777.999503 257.63051,767.054484 244.12001,767.060004 C230.609509,767.065525 219.660011,778.019496 219.660008,791.529997 C219.660006,805.040499 230.6095,815.994474 244.12,816 C257.641548,815.994479 268.600001,805.031549 268.6,791.51 L268.6,791.51 Z" id="_Path_29"></path>
                        <path d="M1082.2,587.54 C1081.39788,587.534123 1080.73708,588.168314 1080.71,588.97 C1080.72063,589.790106 1081.37998,590.453881 1082.2,590.47 C1082.59164,590.464753 1082.965,590.303426 1083.23722,590.021814 C1083.50945,589.740203 1083.65803,589.361596 1083.65,588.97 C1083.65004,588.58725 1083.49663,588.220459 1083.22412,587.9517 C1082.9516,587.682941 1082.58271,587.534647 1082.2,587.54 L1082.2,587.54 Z" id="_Path_30"></path>
                        <path d="M1066.25,637.31 C1065.07032,637.301899 1064.00247,638.006822 1063.54634,639.09478 C1063.0902,640.182738 1063.33605,641.438436 1064.16879,642.274055 C1065.00152,643.109674 1066.25636,643.359854 1067.34589,642.907481 C1068.43542,642.455108 1069.14403,641.389701 1069.14,640.21 C1069.14266,639.441793 1068.83935,638.704139 1068.29708,638.159994 C1067.75481,637.615849 1067.01821,637.309995 1066.25,637.31 Z" id="_Path_31"></path>
                        <path d="M1045,685.08 C1042.57262,685.096557 1040.61721,687.075803 1040.63007,689.503204 C1040.64293,691.930605 1042.6192,693.889026 1045.04661,693.879866 C1047.47403,693.870707 1049.43546,691.897429 1049.43,689.47 C1049.42737,688.299565 1048.95851,687.178413 1048.12714,686.35455 C1047.29577,685.530687 1046.17041,685.072017 1045,685.08 Z" id="_Path_32"></path>
                        <path d="M1018.7,730.43 C1015.48151,730.441046 1012.88083,733.058127 1012.89003,736.276627 C1012.89923,739.495126 1015.51482,742.0973 1018.73332,742.08995 C1021.95183,742.082601 1024.5555,739.468508 1024.55,736.25 C1024.54735,734.70205 1023.92921,733.218699 1022.83183,732.126949 C1021.73445,731.035199 1020.24794,730.424687 1018.7,730.43 L1018.7,730.43 Z" id="_Path_33"></path>
                        <path d="M987.63,772.67 C983.60338,772.703067 980.361777,775.98631 980.380104,780.013024 C980.398431,784.039738 983.669786,787.293338 987.69654,787.289751 C991.723294,787.286164 994.988847,784.02674 995,780 C994.997359,778.049835 994.218751,776.18089 992.836028,774.805671 C991.453305,773.430453 989.58015,772.662028 987.63,772.67 L987.63,772.67 Z" id="_Path_34"></path>
                        <path d="M952.11,811.41 C948.557914,811.405954 945.35334,813.542566 943.991211,816.823105 C942.629083,820.103643 943.377792,823.881717 945.888066,826.394853 C948.39834,828.90799 952.175558,829.661004 955.457647,828.302615 C958.739736,826.944225 960.879998,823.742088 960.88,820.19 C960.882654,817.862319 959.959846,815.629066 958.314865,813.982208 C956.669883,812.335351 954.437682,811.409998 952.11,811.41 Z" id="_Path_35"></path>
                        <path d="M912.57,846.26 C906.921488,846.28211 902.359862,850.878072 902.380109,856.526591 C902.400357,862.17511 906.994814,866.738252 912.643339,866.719867 C918.291865,866.701483 922.856521,862.108531 922.84,856.46 C922.842751,853.741793 921.759367,851.13515 919.830741,849.21967 C917.902116,847.304191 915.288125,846.238658 912.57,846.26 L912.57,846.26 Z" id="_Path_36"></path>
                        <path d="M869.4,876.58 C864.660185,876.555721 860.373194,879.39116 858.540631,883.762447 C856.708067,888.133734 857.691401,893.178638 861.031513,896.541686 C864.371625,899.904734 869.409681,900.922569 873.793407,899.119963 C878.177132,897.317357 881.041842,893.049871 881.05,888.31 C881.039267,881.867305 875.842471,876.634823 869.4,876.58 Z" id="_Path_37"></path>
                        <path d="M822.55,901.23 C817.2187,901.217862 812.405976,904.421088 810.359228,909.343864 C808.312481,914.266641 809.435503,919.937778 813.203877,923.709019 C816.972251,927.480261 822.642532,928.607597 827.566864,926.564596 C832.491196,924.521594 835.698082,919.711308 835.69,914.38 C835.662623,907.132724 829.797253,901.262891 822.55,901.23 Z" id="_Path_38"></path>
                        <path d="M772.62,919.47 C766.687392,919.449764 761.328246,923.009513 759.046704,928.485899 C756.765161,933.962286 758.011689,940.274054 762.203828,944.471936 C766.395967,948.669818 772.706024,949.924985 778.185528,947.650942 C783.665033,945.376898 787.232114,940.02263 787.22,934.09 C787.214505,926.025679 780.684306,919.486535 772.62,919.47 Z" id="_Path_39"></path>
                        <path d="M720.57,931 C714.057263,930.987869 708.17869,934.900644 705.676097,940.913373 C703.173503,946.926103 704.539874,953.854338 709.137924,958.466694 C713.735974,963.079051 720.659931,964.466938 726.680406,961.983035 C732.700881,959.499132 736.631898,953.632743 736.64,947.12 C736.634556,938.238928 729.451012,931.033034 720.57,931 L720.57,931 Z" id="_Path_40"></path>
                        <path d="M667.26,935.54 C657.571316,935.534505 649.711082,943.381347 649.700057,953.070027 C649.689032,962.758706 657.531387,970.623417 667.220059,970.639972 C676.908731,970.656526 684.777916,962.818661 684.8,953.13 C684.811055,943.430254 676.959738,935.556556 667.26,935.54 Z" id="_Path_41"></path>
                        <path d="M632.63,952.13 C632.63,941.63659 624.12341,933.13 613.63,933.13 C603.13659,933.13 594.63,941.63659 594.63,952.13 C594.63,962.62341 603.13659,971.13 613.63,971.13 C624.112008,971.102524 632.602524,962.612008 632.63,952.13 Z" id="_Path_42"></path>
                        <path d="M581.07,944.18 C581.075517,932.876036 571.917293,923.707374 560.61333,923.700014 C549.309367,923.692654 540.139212,932.849383 540.130009,944.153345 C540.120806,955.457307 549.27604,964.628954 560.58,964.64 C566.011525,964.647964 571.223317,962.49588 575.066802,958.658022 C578.910287,954.820164 581.070006,949.611531 581.07,944.18 Z" id="_Path_43"></path>
                        <path d="M531,929.34 C531,917.189736 521.150264,907.34 509,907.34 C496.849736,907.34 487,917.189736 487,929.34 C487,941.490264 496.849736,951.34 509,951.34 C514.838835,951.353316 520.442361,949.039741 524.571051,944.911051 C528.699741,940.782361 531.013316,935.178835 531,929.34 Z" id="_Path_44"></path>
                        <path d="M483.21,907.92 C483.205952,898.45872 477.502431,889.931685 468.759412,886.315684 C460.016394,882.699682 449.956012,884.706967 443.270169,891.401393 C436.584326,898.095819 434.589949,908.158768 438.217163,916.89714 C441.844378,925.635512 450.378723,931.328089 459.84,931.32 C466.044126,931.322665 471.994475,928.857211 476.378641,924.467418 C480.762806,920.077625 483.220624,914.124118 483.21,907.92 L483.21,907.92 Z" id="_Path_45"></path>
                        <path d="M958.4,195 C958.948618,195.045521 959.4762,194.778582 959.764501,194.309608 C960.052802,193.840634 960.052802,193.249366 959.764501,192.780392 C959.4762,192.311418 958.948618,192.044479 958.4,192.09 C957.643072,192.152805 957.060727,192.78547 957.060727,193.545 C957.060727,194.30453 957.643072,194.937195 958.4,195 L958.4,195 Z" id="_Path_46"></path>
                        <path d="M983.4,244 C985.01689,243.999991 986.328148,242.690211 986.329981,241.073322 C986.331814,239.456433 985.02353,238.143683 983.406644,238.140008 C981.789758,238.136332 980.475518,239.443119 980.47,241.06 C980.45918,241.841264 980.764074,242.593841 981.315622,243.147271 C981.86717,243.700702 982.618703,244.008158 983.4,244 Z" id="_Path_47"></path>
                        <path d="M1003.18,295.31 C1004.95245,295.314047 1006.55262,294.249463 1007.23372,292.613094 C1007.91481,290.976725 1007.54255,289.091171 1006.29067,287.836425 C1005.03878,286.58168 1003.15409,286.205109 1001.51616,286.88246 C999.878243,287.55981 998.810005,289.157546 998.81,290.93 C998.807344,292.090728 999.26658,293.204825 1000.0864,294.026523 C1000.90622,294.848221 1002.01927,295.310003 1003.18,295.31 L1003.18,295.31 Z" id="_Path_48"></path>
                        <path d="M1017.68,348.43 C1020.05377,348.438088 1022.19793,347.013318 1023.11007,344.821779 C1024.02221,342.63024 1023.52213,340.104906 1021.84361,338.426388 C1020.16509,336.74787 1017.63976,336.247786 1015.44822,337.159928 C1013.25668,338.07207 1011.83191,340.216231 1011.84,342.59 C1011.83734,344.139678 1012.45177,345.626651 1013.54756,346.722441 C1014.64335,347.818231 1016.13032,348.43266 1017.68,348.43 Z" id="_Path_49"></path>
                        <path d="M1019.3,395.5 C1019.31658,399.535854 1022.60074,402.794646 1026.6366,402.779924 C1030.67246,402.765203 1033.93277,399.482539 1033.9199,395.446672 C1033.90704,391.410804 1030.62587,388.148992 1026.59,388.16 C1022.55118,388.176538 1019.28893,391.461161 1019.3,395.5 L1019.3,395.5 Z" id="_Path_50"></path>
                        <path d="M1029.93,440.24 C1025.09169,440.251046 1021.17634,444.178328 1021.18003,449.016651 C1021.18371,453.854975 1025.10502,457.776292 1029.94335,457.779975 C1034.78167,457.783657 1038.70895,453.868313 1038.72,449.03 C1038.72,444.175417 1034.78458,440.24 1029.93,440.24 Z" id="_Path_51"></path>
                        <path d="M1027.6,492.38 C1023.44931,492.384053 1019.70996,494.888555 1018.12623,498.725227 C1016.54251,502.561899 1017.42645,506.974829 1020.36572,509.905515 C1023.30499,512.8362 1027.72049,513.707227 1031.55251,512.112288 C1035.38454,510.517349 1037.87809,506.770683 1037.87,502.62 C1037.87536,499.897338 1036.7941,497.285082 1034.86607,495.362684 C1032.93804,493.440285 1030.32263,492.366674 1027.6,492.38 L1027.6,492.38 Z" id="_Path_52"></path>
                        <path d="M1019.59,544 C1013.1322,544.016559 1007.90899,549.262136 1007.92002,555.719949 C1007.93105,562.177761 1013.17216,567.405463 1019.62997,567.399957 C1026.08779,567.394452 1031.31998,562.157822 1031.32,555.7 C1031.32535,552.590124 1030.09027,549.606518 1027.88844,547.410318 C1025.68661,545.214118 1022.69985,543.986683 1019.59,544 L1019.59,544 Z" id="_Path_53"></path>
                        <path d="M1018.05,607.28 C1018.04594,601.951417 1014.83135,597.150342 1009.90606,595.116799 C1004.98077,593.083256 999.315413,594.218001 995.553265,597.991601 C991.791118,601.765202 990.673597,607.433979 992.722102,612.353068 C994.770606,617.272158 999.581429,620.472136 1004.91,620.46 C1008.40353,620.465362 1011.75493,619.077197 1014.22147,616.603147 C1016.68801,614.129097 1018.06598,610.773493 1018.05,607.28 L1018.05,607.28 Z" id="_Path_54"></path>
                        <path d="M983.53,641.89 C975.455597,641.89 968.91,648.435597 968.91,656.51 C968.91,664.584403 975.455597,671.13 983.53,671.13 C991.604403,671.13 998.15,664.584403 998.15,656.51 C998.155317,652.630907 996.616708,648.909163 993.873773,646.166227 C991.130837,643.423292 987.409093,641.884683 983.53,641.89 L983.53,641.89 Z" id="_Path_55"></path>
                        <path d="M955.91,686.43 C947.037396,686.441042 939.852646,693.640709 939.860006,702.513317 C939.867365,711.385925 947.064048,718.573662 955.936658,718.569986 C964.809269,718.56631 971.999993,711.372611 972,702.5 C972.000003,698.234504 970.304174,694.144002 967.286137,691.129717 C964.2681,688.115432 960.175493,686.424691 955.91,686.43 L955.91,686.43 Z" id="_Path_56"></path>
                        <path d="M922.47,726.91 C915.372096,726.905964 908.971415,731.180134 906.255172,737.737747 C903.538928,744.295359 905.042613,751.843616 910.064454,756.859727 C915.086295,761.875839 922.636263,763.370906 929.19077,760.647178 C935.745278,757.92345 940.012139,751.517895 940,744.42 C940.000003,739.772592 938.15246,735.315821 934.864371,732.031484 C931.576282,728.747146 927.117405,726.904692 922.47,726.91 L922.47,726.91 Z" id="_Path_57"></path>
                        <path d="M883.86,762.64 C873.36659,762.64 864.86,771.14659 864.86,781.64 C864.86,792.13341 873.36659,800.64 883.86,800.64 C894.35341,800.64 902.86,792.13341 902.86,781.64 C902.86,771.14659 894.35341,762.64 883.86,762.64 Z" id="_Path_58"></path>
                        <path d="M840.74,793.06 C829.445465,793.065532 820.291855,802.222142 820.290022,813.516678 C820.28819,824.811214 829.438829,833.970793 840.733361,833.979991 C852.027893,833.989188 861.193438,824.844524 861.21,813.55 C861.215308,808.117554 859.060997,802.90579 855.221551,799.062594 C851.382106,795.219397 846.172449,793.059997 840.74,793.06 L840.74,793.06 Z" id="_Path_59"></path>
                        <path d="M793.82,817.56 C781.701268,817.548989 771.866621,827.361301 771.850077,839.480026 C771.833534,851.598751 781.641353,861.437877 793.76007,861.459955 C805.878786,861.482032 815.72239,851.678705 815.75,839.56 C815.765937,833.732494 813.462819,828.138061 809.348706,824.010815 C805.234592,819.88357 799.647527,817.562634 793.82,817.56 L793.82,817.56 Z" id="_Path_60"></path>
                        <path d="M743.89,835.77 C730.967845,835.781046 720.500805,846.2645 720.510008,859.186657 C720.519211,872.108813 731.001173,882.577348 743.92333,882.569988 C756.845488,882.562627 767.315518,872.082159 767.31,859.16 C767.298959,846.23492 756.815084,835.764474 743.89,835.77 Z" id="_Path_61"></path>
                        <path d="M591.32,2.92 C592.122335,2.90898873 592.765415,2.2525515 592.759931,1.45015952 C592.754447,0.647767544 592.102455,0.000181315069 591.300045,0.000137477501 C590.497634,9.36399332e-05 589.845572,0.647608625 589.84,1.45 C589.839991,1.84160705 589.996237,2.21703079 590.274083,2.49299854 C590.551928,2.76896628 590.928402,2.92266399 591.32,2.92 L591.32,2.92 Z" id="_Path_62"></path>
                        <path d="M642.54,20.34 C644.154242,20.3289715 645.455469,19.0143495 645.449966,17.4000796 C645.444462,15.7858097 644.134302,14.4800903 642.520022,14.4800684 C640.905743,14.4800465 639.595547,15.7857302 639.59,17.4 C639.587312,18.1822937 639.897574,18.9331773 640.45168,19.4854058 C641.005787,20.0376343 641.75772,20.3453445 642.54,20.34 L642.54,20.34 Z" id="_Path_63"></path>
                        <path d="M691.82,43 C693.596489,42.9959349 695.195418,41.921608 695.870565,40.2784075 C696.545712,38.6352071 696.163977,36.7470789 694.903516,35.4952123 C693.643056,34.2433456 691.75236,33.8745375 690.113817,34.5609106 C688.475274,35.2472837 687.411911,36.8535243 687.42,38.63 C687.431022,41.0506229 689.399358,43.0055391 691.82,43 Z" id="_Path_64"></path>
                        <path d="M738.58,70.79 C741.808239,70.7789632 744.417336,68.154962 744.409985,64.9267122 C744.402633,61.6984625 741.781612,59.0863716 738.553356,59.090038 C735.3251,59.0937043 732.710019,61.7117419 732.71,64.94 C732.707315,66.4958085 733.325541,67.9883762 734.427541,69.0866216 C735.529541,70.184867 737.02421,70.7979945 738.58,70.79 L738.58,70.79 Z" id="_Path_65"></path>
                        <path d="M782.29,103.29 C786.316156,103.29 789.58,100.026156 789.58,96 C789.58,91.9738442 786.316156,88.71 782.29,88.71 C778.263844,88.71 775,91.9738442 775,96 C774.994669,97.9350575 775.761009,99.7923964 777.129306,101.160694 C778.497604,102.528991 780.354943,103.295331 782.29,103.29 L782.29,103.29 Z" id="_Path_66"></path>
                        <path d="M822.49,140.3 C826.048792,140.320241 829.268619,138.192591 830.645492,134.910879 C832.022364,131.629166 831.284552,127.841052 828.776688,125.315971 C826.268824,122.790891 822.485846,122.027179 819.19479,123.381568 C815.903735,124.735957 813.754106,127.941152 813.75,131.5 C813.749888,136.33677 817.653342,140.267022 822.49,140.3 Z" id="_Path_67"></path>
                        <path d="M858.8,181.3 C862.948447,181.291856 866.682942,178.783956 868.260166,174.947024 C869.83739,171.110092 868.94631,166.700785 866.002895,163.777433 C863.059481,160.85408 858.644182,159.993177 854.818127,161.596606 C850.992072,163.200035 848.509772,166.951594 848.53,171.1 C848.552052,176.751496 853.148486,181.3166 858.8,181.3 L858.8,181.3 Z" id="_Path_68"></path>
                        <path d="M890.64,226 C897.104648,225.994477 902.341836,220.751319 902.339995,214.28667 C902.338154,207.82202 897.09798,202.581846 890.63333,202.580005 C884.168681,202.578164 878.925523,207.815352 878.92,214.28 C878.914679,217.389965 880.147753,220.374086 882.346834,222.573166 C884.545914,224.772247 887.530035,226.005321 890.64,226 L890.64,226 Z" id="_Path_69"></path>
                        <path d="M916.73,274.29 C923.985972,274.262411 929.848333,268.362794 929.829958,261.106793 C929.811582,253.850792 923.919415,247.980944 916.663397,247.990106 C909.407378,247.999267 903.530052,253.883976 903.53,261.14 C903.535298,264.634638 904.929306,267.983893 907.405076,270.450285 C909.880846,272.916677 913.235367,274.297964 916.73,274.29 L916.73,274.29 Z" id="_Path_70"></path>
                        <path d="M921.8,311 C921.783815,316.919985 925.336938,322.266242 930.801264,324.543879 C936.26559,326.821517 942.563975,325.58156 946.757207,321.402649 C950.950439,317.223739 952.211935,310.929633 949.953005,305.457547 C947.694076,299.985461 942.360006,296.414069 936.44,296.41 C932.561836,296.396709 928.837954,297.927996 926.090975,300.665594 C923.343995,303.403192 921.799977,307.121813 921.8,311 L921.8,311 Z" id="_Path_71"></path>
                        <path d="M933.32,363.12 C933.336561,372.001036 940.545585,379.189184 949.426631,379.179988 C958.307678,379.170793 965.501802,371.967732 965.499972,363.086681 C965.498142,354.20563 958.301049,347.005535 949.42,347 C945.142461,346.986633 941.036554,348.681336 938.013741,351.707905 C934.990927,354.734473 933.301323,358.842481 933.32,363.12 L933.32,363.12 Z" id="_Path_72"></path>
                        <path d="M937.85,416.41 C937.85405,423.517309 942.139574,429.92216 948.707807,432.637334 C955.27604,435.352509 962.833135,433.843158 967.854468,428.813241 C972.875802,423.783323 974.372244,416.223662 971.645855,409.660076 C968.919466,403.096489 962.507306,398.821911 955.4,398.83 C950.740248,398.829993 946.271785,400.683123 942.979657,403.980878 C939.68753,407.278633 937.842035,411.750255 937.85,416.41 L937.85,416.41 Z" id="_Path_73"></path>
                        <path d="M973.41,470 C973.41,459.50659 964.90341,451 954.41,451 C943.91659,451 935.41,459.50659 935.41,470 C935.41,480.49341 943.91659,489 954.41,489 C959.449113,489 964.281838,486.99822 967.845029,483.435029 C971.40822,479.871838 973.41,475.039113 973.41,470 L973.41,470 Z" id="_Path_74"></path>
                        <path d="M966.91,523.07 C966.905938,514.787932 961.91168,507.324381 954.257335,504.161524 C946.60299,500.998667 937.796992,502.759805 931.947847,508.623265 C926.098702,514.486725 924.359095,523.297002 927.540653,530.943592 C930.72221,538.590183 938.197947,543.566183 946.48,543.55 C957.775841,543.533443 966.921054,534.365848 966.91,523.07 L966.91,523.07 Z" id="_Path_75"></path>
                        <path d="M953.61,574.63 C953.609955,562.520693 943.799247,552.701099 931.689945,552.690091 C919.580643,552.679083 909.752098,562.480822 909.730036,574.590109 C909.707974,586.699396 919.500738,596.536884 931.61,596.57 C937.438428,596.583277 943.032832,594.27793 947.159788,590.16223 C951.286743,586.04653 953.60736,580.458442 953.61,574.63 L953.61,574.63 Z" id="_Path_76"></path>
                        <path d="M910.23,600.4 C897.306244,600.422082 886.8453,610.912855 886.860015,623.836621 C886.874731,636.760388 897.359538,647.22731 910.283311,647.219962 C923.207083,647.212614 933.679981,636.733775 933.68,623.81 C933.677351,617.595161 931.204605,611.636212 926.806301,607.24541 C922.407996,602.854608 916.444834,600.392038 910.23,600.4 L910.23,600.4 Z" id="_Path_77"></path>
                        <path d="M195.9,126.66 C196.700813,126.66 197.35,126.010813 197.35,125.21 C197.344746,124.408084 196.701769,123.756238 195.9,123.74 C195.088141,123.74 194.43,124.398141 194.43,125.21 C194.427215,125.598898 194.581851,125.972388 194.858727,126.245497 C195.135604,126.518607 195.511176,126.668112 195.9,126.66 L195.9,126.66 Z" id="_Path_78"></path>
                        <path d="M243.37,103.18 C244.977093,103.168917 246.270921,101.857139 246.259863,100.250047 C246.248805,98.6429541 244.937048,97.3491051 243.329955,97.3601378 C241.722862,97.3711704 240.428993,98.682907 240.44,100.29 C240.445286,101.061786 240.756956,101.799859 241.306441,102.341843 C241.855927,102.883827 242.598215,103.185323 243.37,103.18 Z" id="_Path_79"></path>
                        <path d="M293.22,84.84 C295.009952,84.8561951 296.632126,83.7888076 297.325556,82.1385519 C298.018986,80.4882962 297.646093,78.58259 296.381802,77.3154054 C295.11751,76.0482209 293.212662,75.6709728 291.560825,76.3606292 C289.908989,77.0502857 288.837896,78.6700159 288.85,80.46 C288.849994,82.8751073 290.804899,84.8344861 293.22,84.84 L293.22,84.84 Z" id="_Path_80"></path>
                        <path d="M344.88,71.82 C348.110803,71.8033893 350.716429,69.1708553 350.699846,65.9400521 C350.683264,62.7092489 348.050753,60.1036 344.81995,60.1201541 C341.589146,60.1367082 338.983474,62.7691965 339,66 C338.997211,67.554846 339.617755,69.0459347 340.722822,70.1397261 C341.82789,71.2335174 343.325264,71.8387356 344.88,71.82 L344.88,71.82 Z" id="_Path_81"></path>
                        <path d="M397.78,64.33 C401.811973,64.3189534 405.073652,61.0453383 405.06997,57.0133516 C405.066287,52.9813649 401.798635,49.7137127 397.766648,49.7100305 C393.734662,49.7063483 390.461047,52.9680268 390.45,57 C390.439286,58.9473017 391.20811,60.8179477 392.585081,62.1949188 C393.962052,63.5718899 395.832698,64.3407144 397.78,64.33 Z" id="_Path_82"></path>
                        <path d="M451.33,62.48 C456.179042,62.4689418 460.101004,58.5290569 460.089954,53.6800153 C460.078905,48.8309737 456.139027,44.9090041 451.289985,44.9200456 C446.440943,44.9310871 442.518967,48.8709584 442.53,53.72 C442.521909,56.0527149 443.447741,58.291642 445.100983,59.9373688 C446.754224,61.5830956 448.997346,62.4987186 451.33,62.48 L451.33,62.48 Z" id="_Path_83"></path>
                        <path d="M504.93,66.23 C509.069459,66.2380928 512.805822,63.7507709 514.395535,59.9287296 C515.985249,56.1066883 515.114957,51.7033065 512.190777,48.7733986 C509.266597,45.8434907 504.864927,44.9645834 501.039782,46.546814 C497.214637,48.1290446 494.720008,51.8605329 494.72,56 C494.706659,58.7137638 495.777425,61.3205241 497.69449,63.2413448 C499.611555,65.1621654 502.216215,66.2380302 504.93,66.23 L504.93,66.23 Z" id="_Path_84"></path>
                        <path d="M558,75.73 C564.457822,75.7299788 569.694452,70.4977937 569.699957,64.0399744 C569.705463,57.582155 564.477761,52.341049 558.019949,52.3300171 C551.562136,52.3189851 546.316559,57.5421996 546.3,64 C546.283996,67.1106653 547.510567,70.0989862 549.70735,72.3014025 C551.904134,74.5038187 554.889304,75.7380378 558,75.73 Z" id="_Path_85"></path>
                        <path d="M609.59,91.9 C616.858064,91.9055207 622.75447,86.0180667 622.759992,78.7500025 C622.765515,71.4819383 616.878062,65.5855311 609.609997,65.5800076 C602.341933,65.5744841 596.445525,71.4619358 596.44,78.73 C596.467336,85.9844424 602.335608,91.8616389 609.59,91.9 L609.59,91.9 Z" id="_Path_86"></path>
                        <path d="M658.8,114.71 C664.721791,114.730239 670.071746,111.178614 672.351954,105.713391 C674.632163,100.248168 673.392854,93.9473606 669.212665,89.7528363 C665.032476,85.558312 658.735948,84.2974397 653.262951,86.5589248 C647.789954,88.8204099 644.220035,94.1581748 644.22,100.08 C644.212036,103.953893 645.743985,107.672139 648.478554,110.416086 C651.213123,113.160033 654.926103,114.704701 658.8,114.71 L658.8,114.71 Z" id="_Path_87"></path>
                        <path d="M688.7,127.71 C688.691908,134.215567 692.60454,140.085054 698.61258,142.580235 C704.620619,145.075416 711.540191,143.704621 716.143187,139.10735 C720.746183,134.51008 722.125589,127.592219 719.637887,121.581079 C717.150185,115.569939 711.285572,111.650005 704.78,111.65 C700.517971,111.647347 696.429449,113.337888 693.413864,116.349722 C690.398279,119.361556 688.702651,123.447971 688.7,127.71 L688.7,127.71 Z" id="_Path_88"></path>
                        <path d="M746.75,178.71 C756.42661,178.682401 764.252828,170.823386 764.239959,161.146745 C764.22709,151.470104 756.379996,143.631932 746.703347,143.630072 C737.026697,143.628211 729.17659,151.463365 729.16,161.14 C729.157337,165.804137 731.010348,170.277715 734.310267,173.573882 C737.610186,176.870048 742.085869,178.717969 746.75,178.71 Z" id="_Path_89"></path>
                        <path d="M784,218.8 C794.49341,218.8 803,210.29341 803,199.8 C803,189.30659 794.49341,180.8 784,180.8 C773.50659,180.8 765,189.30659 765,199.8 C765,210.29341 773.50659,218.8 784,218.8 L784,218.8 Z" id="_Path_90"></path>
                        <path d="M815.82,222.43 C804.514731,222.43 795.35,231.594731 795.35,242.9 C795.35,254.205269 804.514731,263.37 815.82,263.37 C827.125269,263.37 836.29,254.205269 836.29,242.9 C836.292655,237.470205 834.136852,232.262038 830.297407,228.422593 C826.457962,224.583148 821.249795,222.427345 815.82,222.43 Z" id="_Path_91"></path>
                        <path d="M819.91,289.85 C819.926572,301.949242 829.747401,311.7447 841.846645,311.729975 C853.94589,311.715249 863.742846,301.895915 863.729967,289.796668 C863.717088,277.697422 853.899248,267.898967 841.8,267.91 C835.98492,267.90732 830.407972,270.21959 826.300782,274.336161 C822.193592,278.452732 819.894053,284.034941 819.91,289.85 L819.91,289.85 Z" id="_Path_92"></path>
                        <path d="M838.07,339.72 C838.058975,352.635327 848.518022,363.115237 861.433345,363.129951 C874.348668,363.144664 884.831565,352.688612 884.849968,339.773293 C884.86837,326.857975 874.415312,316.372092 861.5,316.35 C848.581089,316.344454 838.09758,326.801117 838.07,339.72 L838.07,339.72 Z" id="_Path_93"></path>
                        <path d="M874.37,366.9 C864.310115,366.895955 855.238542,372.952771 851.385987,382.245732 C847.533433,391.538693 849.658735,402.237363 856.770718,409.352207 C863.882701,416.467051 874.580516,418.596656 883.875026,414.747839 C893.169536,410.899022 899.229999,401.829886 899.23,391.77 C899.224486,378.040867 888.09913,366.911035 874.37,366.9 L874.37,366.9 Z" id="_Path_94"></path>
                        <path d="M3.77,489.59 C2.74612225,489.528286 1.7724746,490.039472 1.24188499,490.917316 C0.711295378,491.795159 0.711295378,492.894841 1.24188499,493.772684 C1.7724746,494.650528 2.74612225,495.161714 3.77,495.1 C4.79387775,495.161714 5.7675254,494.650528 6.29811501,493.772684 C6.82870462,492.894841 6.82870462,491.795159 6.29811501,490.917316 C5.7675254,490.039472 4.79387775,489.528286 3.77,489.59 L3.77,489.59 Z" id="_Path_95"></path>
                        <path d="M19.75,435.61 C17.5155895,435.59786 15.494249,436.933958 14.6298188,438.994418 C13.7653886,441.054879 14.228393,443.43324 15.8026378,445.018955 C17.3768826,446.604669 19.7518197,447.084927 21.8185014,446.235477 C23.885183,445.386028 25.2359191,443.37444 25.24,441.14 C25.2292433,438.105895 22.783947,435.642782 19.75,435.61 L19.75,435.61 Z" id="_Path_96"></path>
                        <path d="M49.26,391.87 C49.2721273,388.512082 47.2597693,385.477686 44.1617116,384.182388 C41.0636539,382.88709 37.4903499,383.586121 35.1087827,385.953376 C32.7272156,388.320631 32.0066584,391.889657 33.2832587,394.995466 C34.5598589,398.101275 37.5820703,400.131887 40.94,400.14 C45.5178114,400.145562 49.2379682,396.447762 49.26,391.87 Z" id="_Path_97"></path>
                        <path d="M67.24,356.13 C73.3151322,356.13 78.24,351.205132 78.24,345.13 C78.24,339.054868 73.3151322,334.13 67.24,334.13 C61.1648678,334.13 56.24,339.054868 56.24,345.13 C56.2727951,351.191496 61.1785039,356.097205 67.24,356.13 Z" id="_Path_98"></path>
                        <path d="M98.33,315.16 C103.909352,315.164044 108.941387,311.805702 111.078382,306.651826 C113.215376,301.497949 112.036198,295.5642 108.090999,291.619001 C104.1458,287.673802 98.212051,286.494624 93.0581745,288.631618 C87.9042979,290.768613 84.5459555,295.800648 84.55,301.38 C84.5446817,305.036311 85.9947911,308.544399 88.5801961,311.129804 C91.1656012,313.715209 94.673689,315.165318 98.33,315.16 L98.33,315.16 Z" id="_Path_99"></path>
                        <path d="M133.84,277.68 C142.97479,277.68 150.38,270.27479 150.38,261.14 C150.38,252.00521 142.97479,244.6 133.84,244.6 C124.70521,244.6 117.3,252.00521 117.3,261.14 C117.3,270.27479 124.70521,277.68 133.84,277.68 Z" id="_Path_100"></path>
                        <path d="M173.38,244.22 C181.20592,244.236186 188.270252,239.534422 191.276324,232.308856 C194.282396,225.08329 192.637636,216.758258 187.109595,211.21876 C181.581553,205.679262 173.259946,204.017269 166.028171,207.008375 C158.796396,209.999481 154.080017,217.054064 154.08,224.88 C154.074693,230.003983 156.105099,234.92021 159.724552,238.547164 C163.344005,242.174118 168.256017,244.214698 173.38,244.22 L173.38,244.22 Z" id="_Path_101"></path>
                        <path d="M216.48,215.09 C225.414617,215.118335 233.484867,209.756988 236.92178,201.509819 C240.358692,193.262649 238.484126,183.756915 232.173541,177.431988 C225.862957,171.107061 216.361503,169.210921 208.106552,172.629102 C199.851601,176.047284 194.471948,184.105342 194.48,193.04 C194.496431,205.191565 204.328504,215.045984 216.48,215.09 L216.48,215.09 Z" id="_Path_102"></path>
                        <path d="M263.18,191.39 C276.886403,191.395518 288.002628,180.289733 288.009988,166.583331 C288.017349,152.876928 276.913059,141.759211 263.206657,141.750008 C249.500256,141.740804 238.381046,152.8436 238.37,166.55 C238.364694,173.134406 240.975935,179.451093 245.629,184.109785 C250.282066,188.768476 256.595593,191.387349 263.18,191.39 L263.18,191.39 Z" id="_Path_103"></path>
                        <path d="M312.87,174 C326.48685,173.942382 338.017404,163.941868 340,150.47 C346.061792,159.194828 356.257396,164.098713 366.857526,163.387941 C377.457656,162.677169 386.90729,156.456009 391.75,147 C397.653241,154.860788 406.753738,159.680437 416.573262,160.146468 C426.392787,160.612499 435.908829,156.676384 442.53,149.41 C453.881103,165.447876 476.041329,169.331719 492.17,158.11 C493.475508,160.274791 495.018378,162.28723 496.77,164.11 C487.950695,165.036493 479.683419,168.846751 473.25,174.95 C465.19901,167.591255 454.393023,164.013183 443.541283,165.112867 C432.689543,166.21255 422.821049,171.885714 416.41,180.71 C410.058428,175.692429 402.19431,172.974708 394.1,173 C380.001661,173.02044 367.193269,181.210946 361.26,194 C351.941944,187.660613 340.09511,186.329871 329.602823,190.443983 C319.110536,194.558096 311.325648,203.586599 308.8,214.57 C298.925179,208.548486 286.569571,208.324166 276.482685,213.983269 C266.395799,219.642373 260.147637,230.304073 260.14,241.87 L260.14,241.99 C250.899561,236.652638 239.512748,236.654036 230.27362,241.993667 C221.034491,247.333297 215.348546,257.19887 215.36,267.87 C215.371791,270.675038 215.772267,273.46491 216.55,276.16 C212.217753,273.456192 207.216731,272.015454 202.11,272 C186.784104,271.988958 174.351059,284.404099 174.340014,299.729995 C174.32897,315.055891 186.744109,327.488939 202.070005,327.499986 C217.395901,327.511033 229.82895,315.095896 229.84,299.77 C229.805612,297.443834 229.489987,295.130366 228.9,292.88 C237.924363,298.778534 249.428699,299.350568 258.993691,294.376358 C268.558682,289.402148 274.696752,279.655298 275.05,268.88 C280.158773,272.138383 286.09058,273.87283 292.15,273.88 C292.71,273.88 293.32,273.8 293.91,273.8 C286.996689,280.091006 282.753116,288.789257 282.05,298.11 C271.778189,296.168737 261.175567,298.905576 253.126663,305.57594 C245.077758,312.246303 240.419792,322.156359 240.42,332.61 C240.41265,333.985005 240.506234,335.358696 240.7,336.72 C239.423974,336.548885 238.137399,336.468683 236.85,336.48 C228.032471,336.477347 219.575178,339.978238 213.339306,346.212234 C207.103434,352.446231 203.6,360.902471 203.6,369.72 C203.579842,373.323597 204.171581,376.904468 205.35,380.31 C204.67,380.31 204.03,380.22 203.35,380.22 C191.987142,380.209039 181.507854,386.347417 175.960156,396.263954 C170.412457,406.180491 170.664912,418.322625 176.62,428 C176.316993,427.980091 176.013007,427.980091 175.71,428 C163.56853,427.985735 152.655715,435.404546 148.2029,446.700029 C143.750085,457.995511 146.66488,470.865332 155.55,479.14 C155.11,479.14 154.71,479.01 154.31,479.01 C141.012179,478.980189 129.552601,488.365351 126.961051,501.408234 C124.369501,514.451117 131.370695,527.504334 143.669807,532.560495 C155.968919,537.616656 170.126555,533.261828 177.457828,522.167443 C184.789101,511.073059 183.243851,496.341617 173.77,487.01 C174.39,487.01 175.05,487.09 175.71,487.09 C183.944012,487.093091 191.803024,483.647746 197.38,477.59 C197.38,477.93 197.38,478.28 197.38,478.59 C197.366286,485.904747 199.685265,493.033328 204,498.94 C193.025369,502.838497 184.96642,512.298747 182.861974,523.753533 C180.757529,535.208319 184.927691,546.915271 193.8,554.46 C183.041716,559.379114 176.020805,569.992141 175.702065,581.817401 C175.383325,593.642661 181.822326,604.618488 192.3,610.11 C181.264182,615.69323 174.914537,627.597239 176.424577,639.872479 C177.934618,652.147718 186.980041,662.157901 199.04,664.9 C187.57004,670.666988 181.570846,683.563871 184.549257,696.051752 C187.527668,708.539634 198.701885,717.340588 211.54,717.31 C213.249345,717.298966 214.953736,717.124843 216.63,716.79 C203.845552,721.047647 196.490702,734.426563 199.746511,747.502089 C203.002319,760.577615 215.772123,768.945489 229.060346,766.711036 C242.34857,764.476584 251.679308,752.392439 250.479605,738.971174 C249.279902,725.549908 237.953855,715.312238 224.48,715.47 C222.885818,715.475505 221.295615,715.629504 219.73,715.93 C231.349661,712.404124 239.30362,701.702801 239.33,689.56 C239.33,688.86 239.17,688.27 239.11,687.56 C243.462774,692.348135 249.180186,695.685037 255.49,697.12 C247.717872,706.227044 245.962213,719.026801 250.995121,729.890228 C256.028028,740.753655 266.927424,747.690463 278.9,747.65 L279.57,747.65 C273.108673,756.541156 272.189381,768.308052 277.191493,778.094793 C282.193604,787.881533 292.269069,794.028887 303.26,794 C306.135879,793.990624 308.995353,793.56625 311.75,792.74 C306.100289,801.266428 305.590995,812.207152 310.424173,821.221563 C315.257351,830.235974 324.651655,835.866771 334.88,835.88 C341.177926,835.868152 347.2785,833.681554 352.15,829.69 C342.885895,840.438319 343.822885,856.598824 354.267117,866.204449 C364.711349,875.810073 380.893655,875.394289 390.830823,865.264991 C400.767991,855.135692 400.873846,838.948392 391.07,828.69 C394.512145,828.62754 397.924664,828.040803 401.19,826.95 L401.19,827.31 C401.194458,839.390264 407.964182,850.45044 418.72,855.95 C417.13636,855.607093 415.520336,855.436103 413.9,855.44 C401.197043,855.358842 390.429532,864.766771 388.805642,877.365766 C387.181752,889.964761 395.211801,901.795515 407.520172,904.938078 C419.828542,908.080641 432.547259,901.547444 437.161936,889.712054 C441.776612,877.876664 436.83706,864.458421 425.65,858.44 C428.168034,859.094622 430.758282,859.430582 433.36,859.44 C439.37109,859.441958 445.261726,857.754464 450.36,854.57 C451.34316,866.601951 459.295271,876.937071 470.673471,880.970807 C482.05167,885.004543 494.73785,881.985994 503.08,873.26 C505.052103,885.658948 514.724139,895.412235 527.106157,897.487991 C539.488174,899.563746 551.812167,893.497934 557.72,882.42 C560.429232,895.838404 572.527918,905.269918 586.201795,904.622944 C599.875673,903.97597 611.029807,893.444259 612.46,879.83 C613.43628,893.986329 625.485802,904.804179 639.665095,904.254259 C653.844388,903.70434 665.019872,891.985748 664.896811,877.796328 C664.77375,863.606909 653.396698,852.083909 639.21,851.78 C641.601518,849.276305 643.603811,846.427926 645.15,843.33 C653.651789,852.041787 666.346721,855.201002 677.94,851.49 C667.746654,858.384961 664.12873,871.698164 669.430295,882.803937 C674.731859,893.909711 687.358569,899.468211 699.129535,895.878067 C710.900501,892.287922 718.275836,880.628797 716.477034,868.454682 C714.678232,856.280566 704.246247,847.252585 691.94,847.22 C689.520793,847.243527 687.119519,847.638119 684.82,848.39 C692.251607,843.890646 697.552122,836.581703 699.52,828.12 C705.041308,832.82792 712.064032,835.406465 719.32,835.39 C736.250403,835.356986 749.966986,821.640403 750,804.71 C750,804.48 749.93,804.24 749.93,804.05 C754.897475,807.674668 760.890701,809.622204 767.04,809.61 C774.798394,809.617961 782.241896,806.542214 787.731662,801.05995 C793.221428,795.577686 796.307351,788.138398 796.31,780.38 C796.325584,777.501544 795.897218,774.637896 795.04,771.89 C806.411287,779.57827 821.698753,777.775355 830.96952,767.652679 C840.240287,757.530004 840.69576,742.143333 832.04,731.49 C836.75931,735.644677 842.832456,737.934552 849.12,737.93 C863.656135,737.93 875.44,726.146135 875.44,711.61 C875.44,697.073865 863.656135,685.29 849.12,685.29 C842.353709,685.288873 835.853512,687.925543 831,692.64 C830.922814,689.181265 830.343427,685.752101 829.28,682.46 L829.58,682.46 C841.662031,682.453506 852.725677,675.690244 858.24,664.94 C857.920705,666.520403 857.753276,668.12772 857.74,669.74 C857.591495,682.463935 866.959282,693.298927 879.57116,694.990408 C892.183038,696.68189 904.074753,688.698183 907.28421,676.384777 C910.493667,664.071371 904.012046,651.298703 892.179115,646.618709 C880.346185,641.938716 866.881355,646.822447 860.8,658 C861.446119,655.483722 861.781947,652.897845 861.8,650.3 C861.771728,644.289015 860.07542,638.403866 856.9,633.3 C868.930548,632.318279 879.264657,624.36695 883.296649,612.989739 C887.328641,601.612529 884.307625,588.928251 875.58,580.59 C887.960124,578.602095 897.693303,568.939718 899.77154,556.574437 C901.849777,544.209156 895.810061,531.895824 884.76,525.97 C898.199216,523.289191 907.658188,511.18422 907.010278,497.495558 C906.362368,483.806896 895.802343,472.649462 882.17,471.25 C896.314345,470.362525 907.256938,458.503488 907.006403,444.333542 C906.755867,430.163597 895.400891,418.698797 881.234014,418.311887 C867.067136,417.924976 855.103325,428.752918 854.079751,442.888067 C853.056177,457.023215 863.335178,469.461834 877.41,471.12 C865.095995,471.852297 854.761835,480.66423 852.092966,492.707822 C849.424096,504.751415 855.068153,517.104132 865.92,522.97 C855.180413,524.823159 846.368578,532.50664 843.070252,542.893843 C839.771926,553.281045 842.536886,564.640593 850.24,572.35 C840.070407,573.715351 831.259326,580.080526 826.768101,589.306235 C822.276875,598.531943 822.701777,609.393346 827.9,618.24 C810.831038,619.143249 797.448624,633.237166 797.43,650.33 C797.432592,653.492638 797.921643,656.63606 798.88,659.65 C798.392647,659.583906 797.901762,659.547173 797.41,659.54 C778.827905,659.54552 763.76552,674.607905 763.76,693.19 C763.762644,693.995286 763.80938,694.799824 763.9,695.6 C762.151737,695.308351 760.382423,695.161187 758.61,695.16 C741.173165,695.139886 726.381075,707.957708 723.92,725.22 C720.795782,724.375676 717.576198,723.93542 714.34,723.91 C700.147817,723.925967 687.244223,732.145139 681.23,745 C673.501215,738.696767 663.275508,736.357386 653.5749,738.673217 C643.874292,740.989049 635.808049,747.695277 631.76,756.81 C624.714217,749.149676 614.396921,745.372689 604.070654,746.673402 C593.744388,747.974114 584.686022,754.191689 579.76,763.36 C573.941969,756.085617 565.262029,751.683109 555.95565,751.286318 C546.649272,750.889527 537.626099,754.537237 531.21,761.29 C527.229941,752.534479 519.551952,746.010549 510.268701,743.496335 C500.98545,740.982121 491.064556,742.739687 483.21,748.29 C481.076306,738.839556 474.807041,730.849037 466.135736,726.527924 C457.464431,722.206811 447.3099,722.01297 438.48,726 C438.21325,716.727491 433.954391,708.022109 426.797573,702.12037 C419.640756,696.21863 410.283574,693.695791 401.13,695.2 C403.346479,685.691281 401.13028,675.690429 395.104281,668.008251 C389.078281,660.326074 379.892992,655.791867 370.13,655.68 C373.848178,647.144197 373.682146,637.415471 369.674871,629.011512 C365.667597,620.607553 358.212909,614.35429 349.24,611.87 C354.910622,604.511566 357.129178,595.063627 355.326438,585.950305 C353.523698,576.836984 347.87512,568.945271 339.83,564.3 C347.49612,558.416359 352.121937,549.406757 352.435691,539.748177 C352.749445,530.089596 348.718107,520.798771 341.45,514.43 C349.862434,510.194958 356.019018,502.512914 358.32,493.38 C360.60292,484.307809 358.801583,474.690934 353.39,467.06 C362.388768,465.03626 370.086573,459.248475 374.529652,451.165629 C378.972731,443.082782 379.733911,433.481988 376.62,424.8 C386.285463,425.294567 395.662076,421.422248 402.162044,414.25174 C408.662013,407.081232 411.598103,397.370665 410.16,387.8 C419.281625,390.040109 428.926583,388.196108 436.578523,382.749095 C444.230462,377.302082 449.130418,368.792323 450,359.44 C458.220503,363.752946 467.901813,364.310653 476.563201,360.970215 C485.224589,357.629777 492.024306,350.715831 495.22,342 C501.946739,348.110575 510.962803,351.057715 520,350.1 L520,350.1 C529.879578,349.160306 538.755026,343.664924 544,335.24 C549.417748,342.995319 557.978817,347.967897 567.399615,348.831341 C576.820413,349.694786 586.14276,346.361277 592.88,339.72 C596.452602,348.697362 603.875539,355.590346 613.092472,358.489424 C622.309405,361.388501 632.341642,359.985835 640.41,354.67 C642.2196,364.172545 648.189141,372.365529 656.68,377 L656.62,377 C663.654218,380.875631 671.885424,381.974552 679.69,380.08 C680.56,381.28 681.49,382.44 682.45,383.52 C682.858304,390.651853 685.679355,397.432953 690.45,402.75 C690.659306,402.984129 690.886672,403.201463 691.13,403.4 C707.56,420.59 745.69,462.32 738.56,518.19 C736.75,532.11 744.56,539.14 754.56,528.38 C815.11,463.11 805.63,382.94 804.27,373.62 C803.946602,367.65115 802.621446,361.779222 800.35,356.25 C801.059689,352.794841 801.421495,349.277281 801.43,345.75 C801.428227,329.568521 793.872056,314.315633 781,304.51 C781.592706,301.421566 781.897347,298.284767 781.91,295.14 C781.916844,274.88141 769.617221,256.649633 750.83,249.07 C750.394503,226.034771 733.481384,206.638026 710.72,203.07 C706.750979,181.643368 688.071128,166.090837 666.28,166.07 C665.46,166.07 664.71,166.15 663.84,166.18 C658.124095,148.529608 641.682841,136.575269 623.13,136.58 C619.489994,136.579326 615.865666,137.056742 612.35,138 C607.804175,128.041267 599.42759,120.341606 589.121963,116.649054 C578.816336,112.956503 567.455976,113.584329 557.62,118.39 C551.993848,108.833556 542.5073,102.179529 531.606212,100.143483 C520.705123,98.1074372 509.456317,100.888628 500.76,107.77 C494.227327,98.6930671 483.822509,93.1972465 472.64267,92.9184377 C461.462831,92.6396289 450.797002,97.6099786 443.82,106.35 C436.613388,97.4292653 425.292193,92.8895767 413.918855,94.3599329 C402.545516,95.8302892 392.75103,103.099834 388.05,113.56 C380.239444,104.290454 367.658548,100.563594 356.05939,104.083368 C344.460233,107.603142 336.072057,117.693086 334.73,129.74 C326.882472,119.484555 312.961349,116.061946 301.253133,121.509469 C289.544916,126.956992 283.196607,139.81043 285.987014,152.418819 C288.777422,165.027208 299.956525,174.001592 312.87,174 Z" id="_Path_104"></path>
                        <path d="M127.52,885.64 C126.957723,885.6479 126.42162,885.87887 126.029657,886.282086 C125.637694,886.685301 125.421987,887.227725 125.43,887.79 C125.429547,888.95437 126.356083,889.907506 127.52,889.94 C128.707984,889.929506 129.673046,888.977724 129.7,887.79 C129.689003,886.595451 128.714587,885.634444 127.52,885.64 L127.52,885.64 Z" id="_Path_105"></path>
                        <path d="M102.62,836 C101.4911,835.994684 100.406468,836.438731 99.6053973,837.234174 C98.8043261,838.029617 98.3526438,839.11109 98.35,840.24 C98.35,842.592733 100.257267,844.5 102.61,844.5 C104.962733,844.5 106.87,842.592733 106.87,840.24 C106.872677,839.112928 106.425449,838.031393 105.627549,837.23537 C104.829648,836.439347 103.747062,835.994668 102.62,836 Z" id="_Path_106"></path>
                        <path d="M82.79,784 C79.2524724,783.99452 76.3792653,786.85585 76.3700918,790.39337 C76.3609183,793.93089 79.2192467,796.807083 82.7567552,796.81995 C86.2942636,796.832817 89.1734394,793.977493 89.19,790.44 C89.1955493,786.896591 86.3333748,784.016528 82.79,784 L82.79,784 Z" id="_Path_107"></path>
                        <path d="M68.3,730.22 C63.5916304,730.23104 59.782655,734.054925 59.7900104,738.763302 C59.7973658,743.471679 63.6182699,747.283645 68.326651,747.279974 C73.0350322,747.276303 76.8499871,743.458383 76.85,738.75 C76.8526744,736.483416 75.952091,734.309187 74.3474971,732.708347 C72.7429032,731.107507 70.5665719,730.212017 68.3,730.22 Z" id="_Path_108"></path>
                        <path d="M70,685.89 C70.0121322,681.564907 67.414491,677.659501 63.4209359,675.998751 C59.4273807,674.338 54.8264561,675.249827 51.7681416,678.308142 C48.7098271,681.366456 47.798,685.967381 49.4587505,689.960936 C51.1195011,693.954491 55.0249072,696.552132 59.35,696.54 C65.2272677,696.528994 69.9889939,691.767268 70,685.89 Z" id="_Path_109"></path>
                        <path d="M68.85,632.31 C68.8334183,625.244375 63.0989821,619.526371 56.0333387,619.530064 C48.9676952,619.533758 43.2392405,625.257755 43.2300461,632.323393 C43.2208518,639.389032 48.9343901,645.127918 56,645.15 C59.4103691,645.163339 62.6850537,643.815162 65.0975058,641.404587 C67.5099578,638.994012 68.8606836,635.720378 68.85,632.31 Z" id="_Path_110"></path>
                        <path d="M43.42,578.74 C43.4255276,586.981702 50.1083003,593.659991 58.3500045,593.659987 C66.5917086,593.659982 73.2744743,586.981687 73.2799933,578.739984 C73.2855123,570.498282 66.6116968,563.811042 58.37,563.8 C54.4026769,563.786672 50.5938558,565.356102 47.7875805,568.160501 C44.9813052,570.964899 43.409327,574.772669 43.42,578.74 L43.42,578.74 Z" id="_Path_111"></path>
                        <path d="M66.39,542.75 C75.8191005,542.733438 83.4510246,535.079144 83.4399883,525.650035 C83.428952,516.220926 75.779131,508.584518 66.3500176,508.590029 C56.9209041,508.59554 49.2800145,516.240885 49.28,525.67 C49.2773303,530.205917 51.0800887,534.556383 54.29028,537.760946 C57.5004713,540.965509 61.8540947,542.76063 66.39,542.75 Z" id="_Path_112"></path>
                        <path d="M81.09,454.87 C73.3175618,454.857862 66.3036967,459.530524 63.320899,466.70784 C60.3381012,473.885156 61.974214,482.152635 67.465868,487.652879 C72.957522,493.153122 81.222434,494.802155 88.4044028,491.830578 C95.5863716,488.859001 100.269991,481.852448 100.27,474.08 C100.26451,463.484592 91.6853862,454.892049 81.09,454.87 L81.09,454.87 Z" id="_Path_113"></path>
                        <path d="M102.4,446.2 C111.044745,446.220235 118.849342,441.027804 122.170639,433.046513 C125.491936,425.065222 123.674994,415.86893 117.567954,409.750426 C111.460914,403.631923 102.268045,401.797738 94.2805392,405.104062 C86.2930337,408.410386 81.0859765,416.205233 81.09,424.85 C81.0954796,436.6234 90.6266309,446.172442 102.4,446.2 L102.4,446.2 Z" id="_Path_114"></path>
                        <path d="M130.06,402.34 C143.023703,402.312389 153.512036,391.783779 153.489957,378.820065 C153.467879,365.856351 142.943746,355.363527 129.980024,355.380072 C117.016302,355.396618 106.518987,365.916272 106.53,378.88 C106.524633,385.115765 109.004201,391.096648 113.420118,395.499428 C117.836034,399.902208 123.824279,402.363945 130.06,402.34 L130.06,402.34 Z" id="_Path_115"></path>
                        <path d="M189.09,336.92 C189.095522,322.775989 177.634012,311.305526 163.490001,311.300004 C149.34599,311.294481 137.875527,322.75599 137.870004,336.900001 C137.864481,351.044012 149.325989,362.514476 163.47,362.52 C177.609446,362.514493 189.073451,351.059438 189.09,336.92 L189.09,336.92 Z" id="_Path_116"></path>
                    </g>
                </g>
                <g id="_Group_" transform="translate(0.000000, 1207.000000)">
                    <path d="M68.3983724,137.999061 C59.228548,138.041172 50.1471773,136.203991 41.7135232,132.600657 C33.592838,129.126412 26.2173807,124.118 19.9907885,117.849519 C13.7800543,111.530897 8.82556569,104.088542 5.39098024,95.9185043 C-1.79699341,78.7599021 -1.79699341,59.4304701 5.39098024,42.2718679 C12.27994,25.7816846 25.2875218,12.6065122 41.6798132,5.51548698 C58.8458496,-1.87235669 78.2980998,-1.83695082 95.4371767,5.61333305 C103.674716,9.26089753 111.144751,14.4419073 117.449818,20.8806934 C118.830202,22.3165737 119.867485,24.0469184 120.483719,25.9416968 C121.257844,28.2283064 120.934424,30.7445157 119.607259,32.7605555 C118.053227,35.091991 115.787914,36.3741119 112.865255,36.56643 L112.770867,36.56643 C109.565045,36.56643 107.323329,35.6284574 105.516472,33.7795042 C100.333196,29.4308755 94.6796222,25.6769565 88.6614634,22.5879386 C82.3934308,19.3188749 75.4258414,17.6226099 68.3579204,17.6450252 C61.5364041,17.6228101 54.7833898,19.0067736 48.5195756,21.710698 C42.4677132,24.3442673 36.98225,28.1251817 32.3657356,32.8449055 C27.7831245,37.5974602 24.1250091,43.1627449 21.5785302,49.2560526 C16.2492471,61.9572178 16.2492471,76.2702684 21.5785302,88.9714336 C26.6653963,101.24637 36.3427798,111.046178 48.5465436,116.280608 C54.8041347,118.983619 61.5526349,120.36209 68.3680334,120.329411 C75.5000077,120.372847 82.5620615,118.921251 89.0996936,116.068046 C95.3693673,113.303861 101.007784,109.285138 105.668167,104.259038 C107.11073,102.654362 109.017307,101.539826 111.122447,101.070606 C111.795519,100.904594 112.485582,100.81741 113.178759,100.810808 C114.79076,100.819097 116.361456,101.321932 117.679046,102.251507 C119.84617,103.938673 121.078552,106.559818 120.996111,109.306545 C120.996111,112.063105 120.156732,114.367549 118.504941,116.199632 C112.24072,123.057737 104.611445,128.527339 96.1080061,132.256509 C87.3754647,136.092713 77.9348846,138.049181 68.3983724,137.999061 L68.3983724,137.999061 Z" id="_Path_117"></path>
                    <path d="M211.395493,137.999167 C202.219577,138.037807 193.132373,136.202637 184.690536,132.606074 C176.590344,129.159166 169.225498,124.192263 162.994234,117.973936 C156.789859,111.73877 151.822835,104.384608 148.355887,96.3004411 C141.214704,79.2243142 141.214704,59.9984232 148.355887,42.9222963 C151.840989,34.810076 156.804901,27.4170876 162.994234,21.120715 C169.211848,14.8611702 176.578531,9.85983807 184.690536,6.39082785 C201.756716,-0.796942616 221.000564,-0.796942616 238.066744,6.39082785 C254.519502,13.3728113 267.618861,26.4702294 274.603627,42.9222963 C281.798791,59.9875485 281.798791,79.2351888 274.603627,96.3004411 C271.151091,104.419042 266.158287,111.791765 259.901239,118.011014 C253.599072,124.193348 246.200289,129.147387 238.083596,132.619556 C229.647501,136.21407 220.565292,138.044801 211.395493,137.999167 Z M211.395493,18.6196678 C204.58816,18.5927932 197.845279,19.938667 191.569852,22.5768503 C185.513025,25.1042809 180.014942,28.8030211 175.391158,33.4607875 C170.786805,38.1636646 167.112485,43.6942153 164.561545,49.7614132 C159.321371,62.4619113 159.321371,76.7203779 164.561545,89.420876 C175.590605,115.191482 205.340721,127.241552 231.194169,116.409939 C237.260988,113.861984 242.790581,110.188417 247.490833,105.583304 C262.041184,90.8834749 266.34646,68.8859007 258.411451,49.785008 C255.830286,43.7123481 252.123806,38.1827339 247.487462,33.487753 C242.809086,28.8433993 237.280887,25.1425415 231.204281,22.5869624 C224.933985,19.9501838 218.197578,18.6010193 211.395493,18.6196678 Z" id="_Compound_Path_"></path>
                    <path d="M402.199339,138.999547 C399.867251,139.005822 397.62873,138.080264 395.978743,136.427525 C394.328756,134.774787 393.403231,132.531022 393.406813,130.192358 L393.406813,51.7362675 C393.440399,47.3473694 392.561619,42.9996097 390.826508,38.9702224 C387.399508,31.0012599 381.053284,24.6552464 373.096987,21.2412888 C364.979702,17.7461776 355.787513,17.7461776 347.670227,21.2412888 C343.77481,22.9351978 340.23926,25.362157 337.254932,28.3908132 C334.274127,31.4584016 331.88237,35.0504338 330.199409,38.9870686 C328.465741,43.0121567 327.576012,47.3517708 327.585506,51.7362675 L327.585506,130.178881 C327.627165,132.531919 326.692663,134.796663 325.005201,136.432188 C323.372568,138.093322 321.135401,139.01553 318.80978,138.98607 C316.473966,138.999557 314.229543,138.076858 312.575324,136.42304 C310.921106,134.769222 309.994145,132.521305 310.000456,130.178881 L310.000456,51.7362675 C309.971714,44.9736539 311.302951,38.2746505 313.914591,32.0396986 C316.414602,26.0091434 320.078663,20.5336348 324.696102,15.9279996 C329.301646,11.3059008 334.751943,7.6167572 340.749096,5.06220505 C353.295639,-0.359917198 367.516519,-0.353822777 380.058436,5.07905124 C392.161821,10.2340247 401.805198,19.8876665 406.966856,32.0161139 C409.654387,38.2397461 411.027138,44.9542062 410.998583,51.7362675 L410.998583,130.178881 C411.041088,132.517812 410.125457,134.771934 408.465315,136.415341 C406.811209,138.091234 404.550583,139.023559 402.199339,138.999547 Z" id="_Path_118"></path>
                    <path d="M488.504992,137.99894 C481.981724,138.039058 475.502047,136.9405 469.361202,134.753319 C463.609236,132.696104 458.270951,129.639517 453.595331,125.72612 C449.144223,121.999874 445.507774,117.407727 442.909874,112.232409 C440.308042,107.078576 438.968546,101.386766 439.000561,95.6208842 C439.000561,90.991944 442.776878,87.2394465 447.4352,87.2394465 C452.093523,87.2394465 455.86984,90.991944 455.86984,95.6208842 C455.857464,99.0280028 456.692259,102.385402 458.300046,105.394744 C459.983473,108.517827 462.293075,111.265001 465.086343,113.466754 C468.199231,115.862238 471.692911,117.724238 475.423177,118.975901 C479.571925,120.337306 483.915948,121.018878 488.284987,120.993904 C492.701037,121.012116 497.091071,120.321591 501.285569,118.948995 C505.117142,117.68352 508.717543,115.810627 511.947333,113.402851 C514.841575,111.275243 517.221343,108.532447 518.913019,105.374564 C520.488289,102.431994 521.192412,99.1061727 520.943831,95.7823244 C520.695267,92.6013457 519.668114,89.5289313 517.951768,86.8324827 C516.092266,83.8885178 513.734515,81.2862036 510.982698,79.1405293 C507.961967,76.7840819 504.610633,74.8793326 501.035103,73.4867585 C497.218323,71.9627669 493.246216,70.8553369 489.188698,70.1839609 C483.337672,69.7789905 477.56221,68.6363827 472.001258,66.7836264 C466.779561,65.0845753 461.835433,62.6371683 457.325256,59.5188169 C453.211879,56.7027842 449.703746,53.1013032 447.005345,48.9243031 C444.342971,44.8067629 442.94352,40.0085255 442.977568,35.1144383 C442.956145,30.224437 444.252193,25.4178516 446.731186,21.1935835 C449.30144,16.8469256 452.748071,13.0750797 456.854784,10.114749 C461.041642,7.01375158 465.993439,4.54506169 471.622173,2.71540596 C483.30389,-0.905135321 495.818138,-0.905135321 507.499855,2.71540596 C513.067665,4.54169835 518.033,7.01038825 522.25709,10.114749 C526.572566,13.3300998 529.960637,17.036498 532.36715,21.1935835 C534.863838,25.4120902 536.17207,30.2205069 536.154614,35.1144383 C536.159137,37.4486672 535.226824,39.688341 533.564207,41.3373142 C531.901591,42.9862873 529.645921,43.9084345 527.296889,43.8994765 C524.905953,43.9446084 522.616473,42.9405888 521.038602,41.1549929 C519.501955,39.473324 518.649013,37.2131611 518.456086,34.4283174 C518.306854,32.2755242 517.517573,30.2152673 516.188346,28.508843 C514.520333,26.3171548 512.453877,24.4553858 510.09591,23.0198759 C507.21432,21.2553778 504.087263,19.9215591 500.815098,19.0612273 C497.154364,18.0750018 493.37759,17.5784538 489.584707,17.5847221 C485.678631,17.5674038 481.787429,18.0638832 478.012462,19.0612273 C474.740246,19.8979574 471.616133,21.2272833 468.748574,23.0030592 C466.388684,24.5081901 464.359973,26.4726199 462.784756,28.7779101 C461.429295,30.6928502 460.697989,32.9750644 460.689634,35.3162386 C460.689634,37.4822281 461.501959,39.4262373 463.207842,41.2827997 C465.241954,43.4760829 467.647746,45.297506 470.315684,46.6641401 C473.416224,48.3030853 476.668052,49.6422401 480.026351,50.6631487 C483.244452,51.6687369 486.542907,52.4001039 489.885944,52.8493182 C496.268829,53.5287046 502.527202,55.0780532 508.484799,57.4537276 C514.367384,59.858514 519.529032,62.8787913 523.810661,66.4338393 C528.131368,69.9734914 531.67199,74.3596178 534.211804,79.3187862 C536.737285,84.3078005 538.035332,89.8211137 537.999269,95.4056305 C538.021984,101.198919 536.678465,106.916918 534.076416,112.101239 C531.51354,117.305235 527.872042,121.911781 523.39096,125.618493 C513.589727,133.694292 501.237114,138.078028 488.504992,137.99894 L488.504992,137.99894 Z" id="_Path_119"></path>
                    <path d="M577.819645,138.99989 C575.480628,139.011573 573.233746,138.08816 571.577896,136.434686 C569.922046,134.781212 568.994274,132.534526 569.000584,130.193484 L569.000584,9.83477325 C568.97325,7.48173645 569.907018,5.21954499 571.585713,3.57191584 C573.219129,1.88915534 575.475919,0.95859026 577.819645,1.00141546 L651.199622,1.00141546 C653.539445,0.99232438 655.785471,1.92136528 657.436189,3.58109382 C659.086907,5.24082236 660.004839,7.49301166 659.985023,9.83477325 C660.02736,12.1688676 659.102554,14.4164021 657.430188,16.0437276 C655.791999,17.7177578 653.540633,18.6478049 651.199622,18.6175969 L586.625242,18.6175969 L586.625242,60.7562846 L632.342988,60.7562846 C637.208044,60.7562846 641.151951,64.703572 641.151951,69.5727977 C641.151951,74.4420235 637.208044,78.3893108 632.342988,78.3893108 L586.625242,78.3893108 L586.625242,121.356757 L651.213086,121.356757 C653.55309,121.341284 655.801299,122.266888 657.453117,123.925823 C659.104935,125.584758 660.022002,127.838066 659.998487,130.180008 C660.042651,132.522346 659.118142,134.778912 657.443652,136.415914 C655.804222,138.087708 653.553375,139.016324 651.213086,138.986415 L577.819645,138.99989 Z" id="_Path_120"></path>
                    <path d="M776.220149,138.999906 C773.884122,139.008864 771.640708,138.084906 769.985725,136.432236 C768.330742,134.779566 767.400458,132.534261 767.400475,130.192558 L767.400475,51.7350596 C767.434493,47.3457008 766.554143,42.9975504 764.815745,38.9687854 C761.389902,31.0037621 755.047993,24.6585473 747.095729,21.2395337 C738.980927,17.7444213 729.790105,17.7444213 721.675303,21.2395337 C717.77118,22.9205617 714.231838,25.3491678 711.255718,28.3891863 C708.270801,31.4564613 705.86562,35.0410088 704.156955,38.9687854 C702.439582,43.0039054 701.562325,47.3480795 701.578948,51.7350596 L701.578948,130.179081 C701.578949,133.326847 699.903694,136.235503 697.184237,137.809386 C694.464779,139.38327 691.11427,139.38327 688.394812,137.809386 C685.675355,136.235503 684.0001,133.326847 684.0001,130.179081 L684.0001,51.7350596 C683.959794,31.3993494 696.063332,13.0136143 714.731154,5.05342093 C727.298138,-0.359323907 741.533136,-0.350794628 754.093656,5.07700603 C760.081865,7.62679414 765.523249,11.3104566 770.11965,15.926149 C774.724071,20.5477338 778.405516,26.0083738 780.966102,32.0145521 C783.656981,38.2375875 785.030395,44.9526439 784.99949,51.7350596 L784.99949,130.179081 C785.015682,132.519939 784.09657,134.769918 782.447189,136.427093 C780.797808,138.084267 778.555381,139.010766 776.220149,138.999906 L776.220149,138.999906 Z" id="_Path_121"></path>
                    <path d="M862.515005,137.999028 C855.993641,138.037411 849.516015,136.938769 843.376382,134.75301 C837.617801,132.700288 832.276051,129.63793 827.604614,125.711251 C823.160878,121.975362 819.519705,117.387909 816.898355,112.222615 C814.313989,107.064942 812.97906,101.37784 813.000248,95.6157842 C812.983836,93.395699 813.872503,91.2636289 815.463635,89.7056763 C817.878248,87.3046594 821.508371,86.5825056 824.666504,87.8749153 C827.824637,89.167325 829.89122,92.2207536 829.90558,95.6157842 C829.886461,99.0148313 830.712932,102.365862 832.311443,105.370658 C833.977511,108.50054 836.282529,111.250194 839.07899,113.443657 C842.186625,115.855736 845.683091,117.726695 849.419802,118.977025 C853.575574,120.343419 857.928127,121.025163 862.305211,120.995274 C866.720069,121.013488 871.108918,120.322879 875.302285,118.950115 C879.129317,117.688483 882.723801,115.81496 885.944252,113.403292 C888.82348,111.25791 891.200491,108.517399 892.911442,105.370658 C894.488903,102.431102 895.193036,99.1062582 894.941706,95.7839716 C894.683737,92.6045108 893.657596,89.5339189 891.95045,86.8330342 C890.091034,83.8850207 887.731422,81.2798831 884.976493,79.1334116 C881.964319,76.7696854 878.613398,74.8671765 875.034967,73.4890399 C871.21298,71.9558166 867.231965,70.8479993 863.16469,70.1858379 C857.323508,69.7850321 851.558022,68.6421499 846.008958,66.7850871 C840.783349,65.0925846 835.836402,62.6456489 831.326765,59.5227519 C827.219683,56.7024673 823.715424,53.1011897 821.016408,48.926941 C818.353328,44.8090213 816.950894,40.0107664 816.979566,35.1153855 C816.983014,30.2280166 818.277006,25.4271719 820.732171,21.1928263 C823.313677,16.8449463 826.769419,13.0729955 830.883491,10.1126354 C835.089521,7.01125834 840.036598,4.5422662 845.619824,2.71238646 C857.299072,-0.904128821 869.808575,-0.904128821 881.487823,2.71238646 C887.071049,4.53890245 892.024893,7.00789459 896.247842,10.1126354 C900.352892,13.0699225 903.794796,16.8431192 906.355174,21.1928263 C908.841205,25.4160138 910.148333,30.2222586 910.141616,35.1153855 C910.16013,37.4634837 909.211354,39.716861 907.515808,41.3517771 C905.892291,43.0345789 903.631056,43.9600937 901.286281,43.9014992 C898.885051,43.9494086 896.585642,42.9382859 895.005998,41.1398609 C893.486683,39.4949873 892.617054,37.2311839 892.447865,34.4628181 C892.295108,32.3093933 891.50383,30.2492636 890.173969,28.5426189 C888.496196,26.347996 886.42426,24.4810598 884.062874,23.036161 C881.188292,21.2664698 878.064658,19.9321284 874.794719,19.0770278 C871.130587,18.0725094 867.344507,17.575591 863.543672,17.6003418 C859.638945,17.5877526 855.749415,18.0842133 851.974551,19.0770278 C848.710884,19.9052415 845.59747,21.2353949 842.747001,23.0193423 C840.388215,24.5264115 838.359267,26.4907268 836.781408,28.7949002 C835.426075,30.7103572 834.692807,32.9922209 834.680085,35.3340292 C834.680085,37.5070114 835.515877,39.4445311 837.180693,41.3013208 C839.237687,43.4876569 841.655895,45.3079298 844.330607,46.6833201 C847.433118,48.3289443 850.690325,49.6685063 854.055571,50.6828182 C857.259394,51.682754 860.541853,52.4141239 863.868514,52.8692554 C870.255981,53.54407 876.518887,55.0937394 882.479268,57.4742285 C888.022539,59.6716303 893.194321,62.7005236 897.81453,66.4554397 C902.112279,69.9970751 905.639851,74.3712913 908.182411,79.3116903 C910.726016,84.3065544 912.034518,89.8324726 911.999308,95.4307779 C912.021267,101.217677 910.686618,106.930077 908.101201,112.114976 C905.515591,117.311484 901.869388,121.915583 897.394942,125.633885 C887.597542,133.693482 875.258819,138.067456 862.542075,137.988937 L862.515005,137.999028 Z" id="_Path_122"></path>
                    <path d="M995.947737,138.99934 C993.60968,139.01102 991.36372,138.087804 989.70855,136.434683 C988.05338,134.781563 987.125989,132.535358 987.132296,130.194816 L987.132296,85.3402473 L932.944256,15.2476155 C931.491452,13.4717725 930.808188,11.1881873 931.046581,8.90525964 C931.194136,6.59123311 932.321597,4.45035353 934.145444,3.02098152 C935.737814,1.70792941 937.738433,0.993094922 939.801457,1.00005028 C942.856579,1.21224806 944.875382,2.31028737 946.392849,4.1863852 L995.991477,68.0208666 L1046.52885,4.19312164 C1047.95854,2.34348195 1050.10982,1.19377954 1052.44058,1.03373247 L1052.58862,1.03373247 C1055.28036,1.03373247 1057.16794,1.70737622 1058.78971,2.99066755 C1060.64202,4.4258123 1061.79891,6.58043495 1061.97269,8.91873252 C1062.15168,11.2066421 1061.44583,13.4759529 1060.001,15.2577202 L1004.75308,85.3570884 L1004.75308,130.181343 C1004.79926,132.530498 1003.87102,134.793798 1002.1892,136.432757 C1000.54352,138.101717 998.290174,139.028324 995.947737,138.99934 L995.947737,138.99934 Z" id="_Path_123"></path>
                    <path d="M1128.50692,137.999073 C1121.9768,138.03653 1115.49045,136.937974 1109.34135,134.753107 C1103.59513,132.695569 1098.26296,129.638569 1093.59397,125.724946 C1089.15446,121.983365 1085.51552,117.394394 1082.89265,112.229797 C1080.29965,107.079015 1078.96618,101.392766 1079.00065,95.6333199 C1078.99704,92.2386246 1081.05545,89.1774928 1084.21265,87.8823677 C1087.36985,86.5872427 1091.00136,87.3142957 1093.40783,89.7233056 C1095.00501,91.2778972 1095.89693,93.4115281 1095.8784,95.6333199 C1095.86462,99.0377099 1096.6896,102.393692 1098.28129,105.408221 C1099.97355,108.532447 1102.2908,111.27969 1105.0906,113.481092 C1108.1972,115.882172 1111.68926,117.74491 1115.41964,118.990826 C1119.56687,120.356893 1123.91121,121.038655 1128.28017,121.009044 C1132.69804,121.027806 1137.08995,120.337203 1141.28623,118.963917 C1145.11612,117.70016 1148.71422,115.826888 1151.94016,113.417182 C1154.82231,111.268006 1157.20095,108.522867 1158.91192,105.37122 C1160.50294,102.434098 1161.20798,99.1032602 1160.94253,95.7779588 C1160.67584,92.6032608 1159.65765,89.5362239 1157.97107,86.8271632 C1156.09135,83.8920469 1153.72892,81.2916077 1150.98239,79.13439 C1147.96452,76.7783384 1144.61422,74.8765354 1141.03917,73.4901078 C1137.21556,71.9665612 1133.23719,70.8590544 1129.17364,70.1869581 C1123.32563,69.788466 1117.55327,68.6455619 1111.99806,66.7862613 C1106.76777,65.0912451 1101.81571,62.6433617 1097.29983,59.5206775 C1093.19425,56.7011148 1089.69261,53.0996442 1086.99787,48.9250344 C1084.34379,44.805542 1082.95054,40.008618 1082.98742,35.1170616 C1082.97348,30.231466 1084.25769,25.4288242 1086.7102,21.194723 C1089.2948,16.8488634 1092.75068,13.0774699 1096.86325,10.1147077 C1101.05646,7.01337981 1106.00099,4.5444268 1111.60209,2.71457607 C1123.29095,-0.904858689 1135.81103,-0.904858689 1147.49989,2.71457607 C1152.77786,4.37303856 1157.74986,6.87226949 1162.22181,10.1147077 C1166.34489,13.0589132 1169.8032,16.8272374 1172.37486,21.1779045 C1174.84558,25.4067487 1176.14633,30.2101226 1176.14503,35.1002431 C1176.13196,39.9603504 1172.16123,43.891802 1167.27126,43.8862175 C1164.88361,43.9403578 1162.59588,42.9341771 1161.03052,41.1414414 C1159.49403,39.4932303 1158.60056,37.2328265 1158.41442,34.447686 C1158.28,32.2954822 1157.49829,30.2330165 1156.1706,28.5275807 C1154.5021,26.3169202 1152.41985,24.4472439 1150.03815,23.02121 C1147.16902,21.2563616 1144.0534,19.922282 1140.79211,19.0621396 C1137.12598,18.058719 1133.33829,17.5618312 1129.53576,17.585477 C1125.63352,17.5698733 1121.74629,18.0663841 1117.97482,19.0621396 C1114.70995,19.8884488 1111.59572,21.2187043 1108.7457,23.0043915 C1106.37345,24.4973915 1104.33931,26.4641379 1102.77232,28.7798579 C1101.41141,30.6928391 1100.6764,32.9760303 1100.66726,35.3188833 C1100.66726,37.4851037 1101.46258,39.4293201 1103.17168,41.2860804 C1105.22314,43.4745849 1107.63884,45.2952161 1110.31266,46.6679943 C1113.41066,48.3118061 1116.66263,49.6512957 1120.02236,50.6674291 C1123.23493,51.6668054 1126.52577,52.398141 1129.86066,52.8538316 C1136.24869,53.5315605 1142.51227,55.0811066 1148.47458,57.4587317 C1154.33966,59.8637745 1159.49064,62.8675552 1163.80569,66.4398006 C1168.1247,69.9793447 1171.66284,74.3661544 1174.19903,79.3261207 C1176.72227,84.3169269 1178.02446,89.8292695 1177.99965,95.4146796 C1178.01748,101.202955 1176.67673,106.915585 1174.08396,112.098613 C1171.50358,117.298596 1167.8559,121.90371 1163.37588,125.617308 C1153.57686,133.686925 1141.23234,138.070393 1128.50692,137.999073 L1128.50692,137.999073 Z" id="_Path_124"></path>
                </g>
            </g>
        </g>
    </g>
</svg>